nose==1.3.7
falcon==1.4.1
gunicorn==19.7.1
PyMySQL==0.8.0
SQLAlchemy==1.2.2
PyYAML==3.12
dependency_injector==3.11.3
alembic==0.9.9
Flask==1.0.2
Flask-GraphQL==1.4.1
graphene==1.4.1
graphene-sqlalchemy==1.1.1
graphql-core==1.1
graphql-relay==0.4.5
iso8601==0.1.11
itsdangerous==0.24
Jinja2==2.9.6
MarkupSafe==1.0
promise==2.0.2
singledispatch==3.4.0.3
six==1.10.0
typing==3.6.1
Werkzeug==0.12.2